…
    ex2

    ## # A tibble: 400 x 3
    ##    R0    R1    R2       
    ##    <chr> <chr> <chr>    
    ##  1 한국  일본  미국     
    ##  2 한국  일본  대한민국 
    ##  3 한국  일본  한국     
    ##  4 한국  일본  일본지도 
    ##  5 한국  일본  일본 환율
    ##  6 한국  일본  영국     
    ##  7 한국  일본  독일     
    ##  8 한국  일본  러시아   
    ##  9 한국  일본  프랑스   
    ## 10 한국  일본  인도     
    ## # ... with 390 more rows
…
