README
…
   : naverRelation1(), naverRelation2()

naverRelation1("")

##  [1] ""          ""        ""          ""         
##  [5] ""          ""        ""        ""         
##  [9] ""        " GDP " ""          ""         
## [13] ""        " "     "gdp"           ""     
## [17] ""        ""          ""    ""

naverRelation2("")

## # A tibble: 380 x 2
##       R1            R2
##    <chr>         <chr>
##  1        
##  2            
##  3            
##  4            
##  5          
##  6            
##  7          
##  8            
##  9          
## 10    GDP 
## # ... with 370 more rows
…
